Case,A1,A2
125,A*01,A*02
1080,A*02,A*23
176,A*02,A*30
1165,A*01,A*25
284,A*02,A*24
906,A*03,A*23
5,A*01,A*03
230,A*02,A*25
29,A*01,A*03
919,A*02,A*24
828,A*02,A*02
917,A*02,A*32
645,A*26,A*30
468,A*01,A*02
665,A*02,A*02
1096,A*02,A*02
955,A*02,A*29
727,A*01,A*23
678,A*02,A*25
170,A*02,A*02
867,A*01,A*68
1066,A*02,A*30
34,A*02,A*30
517,A*02,A*26
81,A*03,A*68
772,A*02,A*02
588,A*02,A*02
534,A*02,A*26
9,A*02,A*02
322,A*02,A*02
677,A*02,A*24
123,A*01,A*02
1280,A*02,A*03
1438,A*01,A*30
671,A*01,A*68
158,A*01,A*24
229,A*01,A*23
412,A*25,A*30
932,A*02,A*29
280,A*25,A*68
95,A*01,A*02
1339,A*02,A*03
1115,A*03,A*24
455,A*24,A*30
474,A*02,A*11
769,A*24,A*26
573,A*02,A*02
118,A*03,A*31
694,A*02,A*03
595,A*25,A*68
55,A*01,A*02
1004,A*03,A*32
946,A*02,A*11
368,A*02,A*02
604,A*02,A*03
506,A*02,A*26
1257,A*24,A*24
1055,A*03,A*25
1296,A*24,A*30
1021,A*02,A*03
913,A*02,A*32
522,A*01,A*01
903,A*01,A*02
708,A*02,A*29
733,A*01,A*24
116,A*03,A*29
124,A*01,A*33
1348,A*02,A*32
421,A*01,A*03
1197,A*02,A*02
796,A*02,A*03
1271,A*01,A*32
841,A*02,A*30
943,A*01,A*02
251,A*02,A*29
1157,A*02,A*29
590,A*03,A*30
802,A*02,A*03
814,A*01,A*03
782,A*02,A*02
334,A*11,A*32
1125,A*02,A*24
521,A*02,A*26
1358,A*02,A*03
163,A*02,A*26
374,A*02,A*30
1223,A*02,A*68
1229,A*02,A*02
885,A*02,A*32
1098,A*03,A*26
690,A*01,A*03
50,A*24,A*68
1293,A*01,A*02
852,A*01,A*02
43,A*02,A*02
1172,A*30,A*68
1,A*02,A*02
1336,A*03,A*03
502,A*01,A*03
578,A*02,A*03
290,A*02,A*03
396,A*01,A*01
197,A*01,A*01
202,A*02,A*24
931,A*03,A*26
1019,A*02,A*03
552,A*01,A*02
1061,A*02,A*30
1035,A*02,A*02
1305,A*02,A*02
938,A*01,A*02
1378,A*03,A*24
672,A*01,A*25
1383,A*03,A*68
1084,A*01,A*30
1164,A*02,A*24
1315,A*02,A*23
348,A*02,A*03
1414,A*01,A*01
642,A*01,A*02
1337,A*02,A*25
843,A*02,A*11
797,A*02,A*03
96,A*02,A*30
898,A*02,A*23
231,A*01,A*02
1155,A*01,A*11
648,A*03,A*68
812,A*01,A*02
586,A*01,A*02
1426,A*11,A*68
106,A*01,A*33
714,A*01,A*02
988,A*02,A*32
120,A*03,A*24
707,A*24,A*32
676,A*01,A*02
557,A*02,A*24
712,A*01,A*02
1413,A*02,A*30
228,A*01,A*33
1127,A*02,A*24
777,A*02,A*02
1324,A*66,A*74
1107,A*02,A*03
1384,A*03,A*33
643,A*11,A*24
530,A*01,A*68
805,A*02,A*25
90,A*01,A*03
1140,A*24,A*30
1094,A*02,A*25
220,A*01,A*02
394,A*03,A*29
227,A*01,A*01
381,A*32,A*68
1158,A*24,A*24
306,A*24,A*25
1286,A*02,A*02
1192,A*02,A*02
504,A*01,A*68
967,A*01,A*29
1060,A*02,A*31
1225,A*02,A*68
209,A*01,A*02
566,A*02,A*02
536,A*01,A*03
896,A*03,A*24
515,A*01,A*01
1252,A*02,A*25
1349,A*02,A*03
758,A*02,A*02
907,A*01,A*68
632,A*03,A*32
1274,A*02,A*68
238,A*02,A*26
904,A*03,A*11
102,A*01,A*02
901,A*01,A*24
1109,A*02,A*29
953,A*01,A*02
246,A*03,A*24
597,A*02,A*11
1332,A*02,A*02
326,A*02,A*11
1416,A*11,A*24
1239,A*02,A*30
1281,A*03,A*33
1335,A*01,A*02
1391,A*03,A*24
974,A*01,A*23
766,A*01,A*24
410,A*01,A*03
458,A*02,A*24
1210,A*31,A*68
958,A*02,A*02
1311,A*02,A*02
156,A*23,A*24
894,A*03,A*11
838,A*01,A*02
1116,A*02,A*11
16,A*02,A*32
1143,A*03,A*26
1054,A*01,A*03
724,A*11,A*26
664,A*02,A*02
92,A*24,A*31
438,A*01,A*03
85,A*03,A*31
881,A*02,A*02
599,A*11,A*26
674,A*02,A*03
42,A*01,A*02
925,A*02,A*11
80,A*02,A*32
1018,A*02,A*68
495,A*01,A*02
508,A*24,A*30
70,A*02,A*29
581,A*02,A*02
429,A*02,A*03
1258,A*01,A*66
291,A*01,A*11
315,A*03,A*24
362,A*01,A*02
1262,A*02,A*03
987,A*11,A*29
899,A*24,A*30
1136,A*02,A*02
951,A*03,A*03
833,A*03,A*24
1057,A*01,A*01
1222,A*01,A*02
1034,A*01,A*03
612,A*30,A*32
1395,A*02,A*02
1231,A*02,A*11
24,A*03,A*24
570,A*02,A*03
1087,A*24,A*34
927,A*01,A*24
1026,A*02,A*24
218,A*01,A*30
1307,A*01,A*68
923,A*02,A*03
1290,A*01,A*02
200,A*01,A*02
1230,A*03,A*29
132,A*02,A*02
719,A*26,A*30
926,A*02,A*03
918,A*02,A*02
269,A*24,A*25
1354,A*02,A*31
41,A*01,A*26
890,A*02,A*29
1237,A*01,A*11
181,A*02,A*03
1275,A*02,A*02
635,A*02,A*03
1273,A*02,A*68
580,A*02,A*23
172,A*03,A*31
698,A*01,A*33
1151,A*02,A*02
1033,A*02,A*02
1412,A*33,A*68
718,A*02,A*32
477,A*01,A*03
579,A*02,A*03
752,A*03,A*03
807,A*02,A*02
1240,A*02,A*68
1032,A*02,A*02
359,A*03,A*29
203,A*02,A*02
1419,A*01,A*03
382,A*03,A*11
478,A*02,A*11
60,A*03,A*24
1102,A*02,A*02
702,A*01,A*03
1433,A*24,A*68
819,A*01,A*02
131,A*02,A*03
950,A*23,A*30
174,A*01,A*03
1236,A*01,A*23
179,A*24,A*29
361,A*01,A*02
554,A*02,A*03
644,A*02,A*29
650,A*01,A*02
859,A*02,A*02
263,A*01,A*24
533,A*01,A*30
765,A*02,A*03
1234,A*01,A*68
1045,A*02,A*03
1083,A*03,A*24
329,A*01,A*02
821,A*01,A*02
270,A*02,A*24
937,A*01,A*26
861,A*02,A*32
1147,A*01,A*02
842,A*11,A*24
567,A*01,A*03
705,A*01,A*02
789,A*02,A*02
1270,A*03,A*03
729,A*01,A*32
493,A*23,A*24
514,A*01,A*32
954,A*01,A*26
750,A*01,A*02
423,A*01,A*01
388,A*02,A*26
435,A*25,A*30
1075,A*01,A*11
1408,A*03,A*26
108,A*01,A*24
1028,A*02,A*24
683,A*24,A*24
551,A*02,A*24
684,A*01,A*03
331,A*03,A*11
422,A*02,A*03
922,A*11,A*24
830,A*01,A*02
159,A*02,A*11
1166,A*01,A*01
1424,A*02,A*03
893,A*01,A*24
442,A*02,A*03
851,A*02,A*68
1215,A*02,A*24
892,A*01,A*02
193,A*02,A*24
1041,A*01,A*01
1355,A*03,A*29
1422,A*01,A*11
272,A*01,A*02
472,A*01,A*01
416,A*01,A*29
991,A*03,A*03
856,A*25,A*68
406,A*01,A*02
465,A*02,A*66
171,A*03,A*24
1086,A*02,A*68
259,A*02,A*31
703,A*02,A*02
288,A*01,A*03
1232,A*02,A*24
358,A*01,A*03
1141,A*01,A*29
1163,A*11,A*11
1247,A*01,A*01
308,A*24,A*31
1227,A*02,A*24
870,A*01,A*01
669,A*02,A*24
411,A*03,A*68
128,A*02,A*02
673,A*11,A*24
1203,A*01,A*25
1204,A*02,A*68
480,A*03,A*68
110,A*01,A*31
512,A*02,A*03
17,A*01,A*01
831,A*01,A*02
30,A*02,A*02
320,A*03,A*32
341,A*01,A*11
18,A*02,A*68
510,A*02,A*11
447,A*03,A*32
767,A*02,A*36
871,A*01,A*68
1089,A*03,A*24
369,A*01,A*24
1365,A*02,A*03
419,A*02,A*02
549,A*02,A*24
1106,A*01,A*24
1388,A*24,A*32
141,A*03,A*23
135,A*02,A*24
222,A*29,A*30
594,A*03,A*68
221,A*24,A*68
153,A*01,A*01
1186,A*01,A*02
431,A*02,A*24
728,A*01,A*02
603,A*01,A*02
933,A*02,A*03
1156,A*02,A*02
500,A*02,A*03
332,A*01,A*02
1040,A*24,A*24
1006,A*02,A*30
1338,A*02,A*23
298,A*01,A*31
902,A*24,A*25
260,A*02,A*26
1038,A*24,A*31
760,A*02,A*32
1242,A*01,A*01
1062,A*02,A*31
970,A*01,A*68
787,A*02,A*24
1377,A*02,A*24
401,A*02,A*24
912,A*02,A*11
1005,A*01,A*01
763,A*02,A*03
1381,A*29,A*33
519,A*03,A*31
1101,A*03,A*03
1003,A*02,A*33
312,A*02,A*02
547,A*01,A*02
1241,A*01,A*24
294,A*03,A*26
73,A*03,A*25
824,A*26,A*31
3,A*03,A*24
591,A*02,A*03
261,A*02,A*29
564,A*03,A*11
1130,A*01,A*02
1405,A*02,A*03
319,A*02,A*24
418,A*01,A*03
330,A*24,A*33
1374,A*02,A*24
1329,A*03,A*03
2,A*01,A*02
916,A*02,A*02
6,A*01,A*33
399,A*03,A*25
217,A*01,A*25
792,A*01,A*11
67,A*02,A*11
762,A*01,A*32
587,A*02,A*25
1001,A*01,A*03
1265,A*02,A*03
83,A*02,A*30
507,A*01,A*01
198,A*02,A*32
1269,A*02,A*11
745,A*02,A*66
505,A*01,A*02
737,A*03,A*68
167,A*01,A*01
196,A*02,A*24
436,A*02,A*03
1369,A*02,A*24
492,A*03,A*68
390,A*02,A*02
1187,A*02,A*68
511,A*01,A*03
1070,A*01,A*68
629,A*02,A*31
1330,A*03,A*03
801,A*01,A*23
1063,A*01,A*03
800,A*03,A*11
1360,A*02,A*33
434,A*02,A*24
764,A*01,A*01
498,A*01,A*02
354,A*01,A*29
548,A*30,A*68
82,A*02,A*03
631,A*01,A*02
1244,A*24,A*68
611,A*02,A*26
470,A*01,A*24
539,A*02,A*02
1100,A*01,A*03
353,A*01,A*02
376,A*01,A*23
731,A*01,A*03
935,A*01,A*02
1309,A*02,A*24
46,A*01,A*29
811,A*11,A*24
464,A*03,A*24
1184,A*01,A*02
1088,A*02,A*68
1261,A*03,A*24
235,A*01,A*24
743,A*02,A*25
736,A*02,A*31
300,A*01,A*24
563,A*02,A*32
993,A*01,A*02
426,A*01,A*02
1436,A*02,A*23
393,A*03,A*03
104,A*02,A*26
36,A*01,A*26
1119,A*01,A*02
835,A*02,A*02
786,A*02,A*02
178,A*02,A*23
38,A*01,A*03
208,A*02,A*30
1428,A*02,A*02
1108,A*02,A*03
395,A*02,A*24
486,A*01,A*02
109,A*01,A*02
122,A*02,A*25
295,A*03,A*30
213,A*02,A*02
342,A*03,A*23
1314,A*02,A*03
352,A*02,A*24
366,A*02,A*25
349,A*01,A*02
1176,A*01,A*02
1432,A*01,A*03
253,A*02,A*24
397,A*01,A*02
1069,A*03,A*29
1093,A*02,A*02
257,A*02,A*25
876,A*01,A*24
725,A*01,A*11
355,A*03,A*24
837,A*02,A*02
998,A*03,A*24
682,A*01,A*24
670,A*02,A*03
1364,A*02,A*03
248,A*02,A*24
1058,A*25,A*30
242,A*02,A*24
244,A*02,A*29
380,A*01,A*01
403,A*02,A*32
1437,A*24,A*26
113,A*01,A*03
936,A*02,A*03
1148,A*02,A*02
680,A*03,A*03
600,A*02,A*29
941,A*02,A*11
387,A*11,A*29
1298,A*03,A*31
788,A*01,A*01
939,A*02,A*02
1121,A*02,A*02
1154,A*01,A*02
1138,A*01,A*25
845,A*02,A*03
1387,A*02,A*11
956,A*01,A*01
1211,A*11,A*26
527,A*24,A*24
1024,A*03,A*03
1248,A*02,A*03
523,A*02,A*02
188,A*01,A*02
440,A*29,A*68
700,A*02,A*68
952,A*23,A*31
195,A*02,A*25
720,A*02,A*02
999,A*02,A*02
146,A*01,A*01
780,A*02,A*23
868,A*02,A*24
1145,A*03,A*26
546,A*01,A*02
1039,A*02,A*24
1135,A*01,A*02
617,A*01,A*02
621,A*03,A*24
383,A*01,A*03
1221,A*01,A*25
1167,A*02,A*24
88,A*03,A*03
784,A*01,A*01
738,A*11,A*24
785,A*02,A*02
834,A*02,A*24
1134,A*01,A*02
908,A*03,A*24
183,A*03,A*24
775,A*02,A*02
384,A*01,A*03
544,A*01,A*24
337,A*03,A*24
74,A*02,A*24
840,A*02,A*02
375,A*29,A*29
485,A*02,A*24
21,A*02,A*02
175,A*03,A*24
565,A*02,A*24
69,A*01,A*26
140,A*29,A*68
1133,A*02,A*02
844,A*01,A*32
741,A*01,A*30
1137,A*01,A*68
1350,A*01,A*25
451,A*02,A*31
1218,A*01,A*01
1079,A*02,A*03
1200,A*03,A*32
444,A*01,A*01
774,A*01,A*02
667,A*02,A*68
1441,A*02,A*03
572,A*01,A*02
240,A*24,A*30
701,A*02,A*02
414,A*01,A*02
1037,A*02,A*11
1020,A*01,A*25
134,A*02,A*25
961,A*01,A*02
1097,A*01,A*03
601,A*02,A*02
1220,A*01,A*02
199,A*01,A*01
1251,A*11,A*23
568,A*01,A*29
177,A*02,A*02
1255,A*02,A*11
561,A*01,A*32
816,A*02,A*30
356,A*02,A*24
360,A*24,A*29
1389,A*01,A*24
1356,A*02,A*03
744,A*02,A*11
173,A*01,A*03
583,A*02,A*29
48,A*01,A*30
532,A*02,A*02
1312,A*03,A*11
59,A*01,A*02
445,A*01,A*02
854,A*03,A*68
982,A*02,A*68
1170,A*02,A*03
711,A*01,A*02
40,A*02,A*03
818,A*02,A*32
656,A*02,A*03
858,A*02,A*24
207,A*01,A*24
28,A*03,A*25
211,A*03,A*11
32,A*01,A*31
216,A*01,A*02
688,A*02,A*11
709,A*01,A*02
1394,A*24,A*68
1090,A*01,A*02
1403,A*02,A*26
305,A*02,A*24
1279,A*01,A*02
920,A*03,A*11
978,A*02,A*02
1213,A*02,A*03
148,A*02,A*02
869,A*02,A*03
1168,A*02,A*11
972,A*02,A*11
1328,A*02,A*31
542,A*01,A*24
747,A*02,A*29
959,A*24,A*30
26,A*02,A*30
995,A*01,A*02
1076,A*02,A*24
466,A*01,A*26
675,A*02,A*02
1321,A*02,A*31
865,A*01,A*11
1256,A*01,A*02
53,A*01,A*01
204,A*01,A*02
1205,A*02,A*24
190,A*01,A*01
1268,A*11,A*68
1159,A*03,A*29
1409,A*01,A*23
1105,A*01,A*02
1263,A*02,A*03
1073,A*02,A*03
975,A*02,A*68
1331,A*03,A*24
849,A*02,A*68
1043,A*02,A*02
1368,A*01,A*01
1064,A*26,A*29
78,A*02,A*03
1375,A*02,A*32
15,A*24,A*25
424,A*02,A*31
1316,A*02,A*11
138,A*01,A*02
147,A*03,A*68
49,A*01,A*25
323,A*24,A*24
117,A*01,A*02
820,A*01,A*11
815,A*02,A*03
283,A*24,A*29
1427,A*01,A*02
467,A*03,A*26
1333,A*01,A*24
1417,A*01,A*02
1371,A*01,A*01
338,A*02,A*26
1418,A*02,A*26
1276,A*03,A*23
1129,A*26,A*32
165,A*01,A*11
1117,A*02,A*32
813,A*02,A*03
307,A*01,A*25
1030,A*03,A*24
781,A*01,A*03
243,A*24,A*68
494,A*01,A*03
742,A*01,A*03
236,A*02,A*11
808,A*01,A*03
592,A*03,A*03
1199,A*24,A*26
615,A*01,A*03
847,A*01,A*02
101,A*03,A*11
166,A*01,A*02
929,A*03,A*30
791,A*02,A*02
45,A*01,A*24
271,A*24,A*25
475,A*01,A*68
1113,A*02,A*68
1182,A*02,A*26
1171,A*01,A*03
482,A*01,A*02
1411,A*01,A*01
476,A*01,A*03
1259,A*32,A*68
625,A*01,A*02
1284,A*01,A*02
1025,A*02,A*25
1177,A*01,A*02
980,A*02,A*03
241,A*02,A*03
560,A*01,A*02
1000,A*01,A*02
997,A*02,A*02
1226,A*02,A*03
576,A*02,A*24
336,A*03,A*23
710,A*01,A*03
151,A*29,A*68
799,A*01,A*24
439,A*01,A*02
681,A*01,A*02
484,A*02,A*24
1302,A*24,A*29
1047,A*01,A*24
20,A*24,A*32
1178,A*02,A*02
61,A*24,A*68
984,A*02,A*02
914,A*01,A*02
754,A*01,A*30
900,A*01,A*03
1353,A*02,A*03
58,A*02,A*32
265,A*29,A*32
488,A*02,A*23
1194,A*01,A*29
910,A*01,A*02
770,A*02,A*31
1175,A*01,A*26
1202,A*02,A*03
425,A*03,A*25
325,A*01,A*24
704,A*01,A*31
823,A*01,A*24
1400,A*01,A*02
313,A*01,A*31
509,A*26,A*26
1027,A*02,A*03
1272,A*01,A*03
111,A*02,A*30
942,A*02,A*25
911,A*02,A*02
1415,A*02,A*29
487,A*02,A*11
556,A*02,A*03
1390,A*01,A*01
538,A*02,A*02
596,A*02,A*02
309,A*02,A*11
448,A*02,A*32
687,A*02,A*24
1042,A*03,A*11
657,A*24,A*68
157,A*02,A*23
357,A*01,A*02
948,A*02,A*68
836,A*30,A*68
129,A*01,A*02
825,A*01,A*02
1214,A*02,A*11
960,A*01,A*01
1254,A*24,A*68
1278,A*01,A*68
827,A*24,A*68
966,A*01,A*74
77,A*02,A*33
10,A*02,A*03
1288,A*01,A*68
155,A*02,A*03
839,A*01,A*29
400,A*02,A*02
1144,A*01,A*03
1399,A*02,A*11
316,A*01,A*29
210,A*02,A*25
292,A*01,A*32
149,A*11,A*26
398,A*01,A*02
1208,A*02,A*11
11,A*03,A*26
1126,A*01,A*31
620,A*02,A*68
962,A*01,A*29
550,A*03,A*31
653,A*02,A*30
1128,A*02,A*03
497,A*01,A*03
986,A*01,A*02
1112,A*02,A*32
983,A*24,A*31
1139,A*02,A*03
143,A*02,A*68
180,A*02,A*30
829,A*01,A*01
1327,A*02,A*02
63,A*01,A*01
407,A*01,A*02
1235,A*02,A*25
1131,A*02,A*30
115,A*24,A*24
501,A*02,A*29
1300,A*02,A*24
1362,A*26,A*29
1304,A*02,A*32
1370,A*01,A*24
992,A*01,A*01
1201,A*01,A*03
619,A*02,A*02
1023,A*01,A*03
779,A*02,A*24
696,A*01,A*02
610,A*02,A*02
661,A*01,A*02
1077,A*11,A*23
964,A*24,A*24
897,A*02,A*68
883,A*01,A*02
1067,A*01,A*03
1016,A*02,A*24
555,A*02,A*03
1266,A*01,A*25
363,A*02,A*02
499,A*01,A*25
182,A*01,A*03
214,A*02,A*30
4,A*03,A*24
921,A*01,A*31
1397,A*01,A*01
863,A*29,A*30
1392,A*68,A*68
54,A*02,A*31
878,A*01,A*02
853,A*01,A*02
977,A*02,A*29
154,A*02,A*02
850,A*02,A*29
489,A*02,A*02
706,A*01,A*02
62,A*01,A*25
1434,A*01,A*30
1092,A*01,A*31
1313,A*01,A*03
1114,A*02,A*03
543,A*03,A*31
194,A*24,A*24
832,A*01,A*01
1002,A*02,A*29
1091,A*01,A*01
335,A*01,A*02
321,A*01,A*01
1322,A*02,A*24
191,A*02,A*02
968,A*01,A*02
103,A*11,A*68
1401,A*02,A*68
809,A*02,A*32
559,A*03,A*24
633,A*02,A*03
1341,A*01,A*03
1179,A*02,A*29
934,A*01,A*02
887,A*01,A*30
351,A*02,A*03
1152,A*01,A*32
1367,A*02,A*11
1212,A*02,A*25
1068,A*01,A*02
1162,A*02,A*02
630,A*01,A*24
94,A*01,A*68
1085,A*23,A*68
1153,A*02,A*03
886,A*01,A*02
275,A*02,A*24
1380,A*25,A*30
473,A*02,A*24
192,A*02,A*24
367,A*01,A*11
206,A*24,A*33
318,A*01,A*03
1238,A*02,A*24
693,A*02,A*24
1267,A*02,A*02
1198,A*01,A*01
343,A*01,A*24
76,A*03,A*24
679,A*29,A*68
1243,A*30,A*32
142,A*01,A*02
1036,A*02,A*02
1361,A*02,A*24
420,A*01,A*01
479,A*01,A*02
339,A*02,A*24
909,A*02,A*02
723,A*01,A*02
1425,A*02,A*02
1398,A*01,A*01
1277,A*03,A*24
880,A*02,A*03
1081,A*01,A*02
87,A*01,A*03
1410,A*01,A*24
7,A*02,A*25
1124,A*02,A*02
558,A*01,A*02
783,A*01,A*03
75,A*23,A*30
93,A*02,A*02
1007,A*29,A*68
735,A*01,A*02
518,A*02,A*29
1334,A*30,A*32
459,A*30,A*32
1052,A*01,A*32
1319,A*02,A*02
1318,A*24,A*31
574,A*02,A*11
441,A*01,A*24
299,A*01,A*02
1406,A*01,A*02
25,A*01,A*68
56,A*02,A*02
1048,A*02,A*29
91,A*01,A*02
346,A*01,A*03
1008,A*02,A*02
86,A*01,A*11
126,A*01,A*02
663,A*02,A*02
607,A*01,A*01
577,A*03,A*03
136,A*02,A*29
1386,A*02,A*02
636,A*01,A*03
79,A*03,A*03
895,A*02,A*33
1402,A*01,A*02
1071,A*24,A*25
1207,A*03,A*25
1295,A*02,A*24
1195,A*01,A*30
1120,A*02,A*02
994,A*02,A*03
72,A*02,A*02
649,A*01,A*33
732,A*01,A*02
647,A*02,A*25
256,A*02,A*02
1429,A*02,A*24
226,A*11,A*24
924,A*03,A*23
652,A*02,A*30
415,A*02,A*03
634,A*03,A*68
457,A*26,A*30
771,A*02,A*32
739,A*02,A*02
1393,A*01,A*29
219,A*02,A*03
1326,A*02,A*29
1161,A*01,A*03
432,A*01,A*01
402,A*02,A*30
768,A*02,A*03
1372,A*02,A*26
685,A*01,A*02
1191,A*02,A*24
462,A*02,A*03
1440,A*02,A*02
616,A*01,A*31
453,A*02,A*30
969,A*02,A*24
276,A*02,A*02
826,A*01,A*02
224,A*24,A*30
133,A*24,A*25
65,A*02,A*02
1123,A*01,A*68
460,A*02,A*03
957,A*01,A*25
817,A*01,A*02
282,A*01,A*03
114,A*01,A*03
1396,A*01,A*24
127,A*01,A*03
660,A*02,A*26
1017,A*02,A*02
112,A*02,A*24
296,A*01,A*24
340,A*02,A*02
310,A*03,A*29
1430,A*01,A*02
930,A*02,A*29
373,A*01,A*24
469,A*01,A*01
186,A*02,A*02
452,A*02,A*29
433,A*01,A*03
627,A*01,A*02
545,A*01,A*02
541,A*02,A*24
12,A*02,A*02
1074,A*02,A*02
614,A*02,A*24
1044,A*01,A*25
593,A*11,A*29
68,A*03,A*24
293,A*02,A*68
793,A*02,A*02
651,A*24,A*32
1110,A*03,A*68
571,A*24,A*68
628,A*26,A*33
279,A*03,A*24
1291,A*02,A*03
370,A*01,A*03
378,A*03,A*11
1245,A*01,A*02
748,A*11,A*29
1292,A*01,A*02
915,A*02,A*03
598,A*24,A*29
1146,A*11,A*31
1012,A*02,A*31
281,A*01,A*02
454,A*01,A*29
324,A*03,A*11
64,A*02,A*02
130,A*02,A*25
520,A*02,A*29
1029,A*02,A*23
289,A*01,A*68
1260,A*03,A*24
350,A*02,A*02
537,A*02,A*02
268,A*24,A*30
1431,A*01,A*02
726,A*24,A*68
1439,A*02,A*02
239,A*01,A*01
659,A*11,A*24
888,A*02,A*11
463,A*01,A*30
584,A*01,A*11
1059,A*03,A*26
427,A*01,A*23
875,A*01,A*11
1228,A*02,A*31
98,A*11,A*32
254,A*01,A*02
1173,A*02,A*26
848,A*01,A*24
776,A*02,A*30
1169,A*03,A*29
417,A*02,A*03
413,A*01,A*11
392,A*02,A*02
1357,A*02,A*24
274,A*02,A*02
1015,A*02,A*11
947,A*02,A*03
803,A*02,A*29
1306,A*25,A*29
461,A*03,A*29
428,A*03,A*68
1253,A*02,A*68
1320,A*02,A*25
662,A*02,A*24
857,A*02,A*32
717,A*02,A*68
1297,A*03,A*25
638,A*03,A*68
1299,A*01,A*02
1343,A*02,A*32
189,A*03,A*23
347,A*02,A*23
184,A*01,A*30
297,A*29,A*32
264,A*01,A*29
266,A*01,A*01
965,A*26,A*68
756,A*02,A*02
107,A*02,A*03
39,A*02,A*02
1308,A*02,A*24
185,A*02,A*03
1065,A*03,A*11
409,A*01,A*24
314,A*01,A*02
973,A*02,A*02
757,A*02,A*24
139,A*02,A*26
569,A*01,A*26
301,A*11,A*68
14,A*02,A*68
716,A*02,A*24
344,A*02,A*11
278,A*01,A*02
1082,A*01,A*24
1099,A*02,A*24
1013,A*02,A*68
161,A*01,A*11
528,A*11,A*11
613,A*02,A*02
232,A*02,A*02
1051,A*23,A*24
1264,A*01,A*23
976,A*31,A*32
249,A*01,A*03
794,A*01,A*02
1193,A*02,A*32
855,A*01,A*24
168,A*01,A*32
371,A*03,A*29
996,A*02,A*11
981,A*03,A*30
1303,A*01,A*01
1122,A*01,A*11
377,A*01,A*25
437,A*03,A*24
1149,A*03,A*25
605,A*01,A*26
368.dup1,A*02,A*02
1087.dup1,A*24,A*34
658,A*01,A*02
575,A*02,A*24
1056,A*01,A*31
691,A*02,A*29
879,A*03,A*25
928,A*02,A*24
23,A*11,A*68
944,A*02,A*02
1031,A*02,A*03
125.dup1,A*01,A*02
819.dup1,A*01,A*02
302,A*01,A*24
526,A*02,A*02
1196,A*01,A*30
695,A*01,A*31
1379,A*01,A*02
225,A*02,A*31
740,A*03,A*11
1293.dup1,A*01,A*02
423.dup1,A*01,A*01
1213.dup1,A*02,A*03
1206,A*02,A*24
759,A*01,A*02
524,A*02,A*02
490,A*01,A*24
755,A*02,A*02
552.dup1,A*01,A*02
922.dup1,A*11,A*24
914.dup1,A*01,A*02
1376,A*02,A*24
1283,A*03,A*29
1250,A*01,A*03
169,A*01,A*02
730,A*01,A*02
1413.dup1,A*02,A*30
569.dup1,A*01,A*26
143.dup1,A*02,A*68
746,A*02,A*03
1022,A*02,A*23
1282,A*01,A*01
287,A*01,A*24
430,A*02,A*03
1325,A*02,A*25
1034.dup1,A*01,A*03
873,A*01,A*02
1189,A*01,A*02
22,A*01,A*24
1345,A*11,A*24
798,A*02,A*33
862,A*01,A*02
874,A*02,A*68
533.dup1,A*01,A*30
404,A*30,A*32
574.dup1,A*02,A*11
404.dup1,A*30,A*32
866,A*01,A*32
1174,A*01,A*03
535,A*02,A*03
639,A*02,A*02
795,A*03,A*11
267,A*03,A*29
955.dup1,A*02,A*29
890.dup1,A*02,A*29
524.dup1,A*02,A*02
732.dup1,A*01,A*02
