"DonorType","B_count","cases","freq"
"Autoab Pos",1,7,36.8421052631579
"Autoab Pos",2,12,63.1578947368421
"No diabetes",0,7,7.4468085106383
"No diabetes",1,31,32.9787234042553
"No diabetes",2,56,59.5744680851064
"T1D",0,8,8.88888888888889
"T1D",1,37,41.1111111111111
"T1D",2,45,50
